{
  "project_info": {
    "project_number": "562655869453",
    "project_id": "control-lights-realtime",
    "storage_bucket": "control-lights-realtime.appspot.com"
  },
  "client": [
    {
      "client_info": {
        "mobilesdk_app_id": "1:562655869453:android:1f21f694745f17fc10f344",
        "android_client_info": {
          "package_name": "com.example.firebase_realtime"
        }
      },
      "oauth_client": [
        {
          "client_id": "562655869453-3crppn3318s0m3qsg6pe2qi6li90osi4.apps.googleusercontent.com",
          "client_type": 3
        }
      ],
      "api_key": [
        {
          "current_key": "AIzaSyAd2pHuuCUOb-Lck4e3VNUaBUK2cbtCLi8"
        }
      ],
      "services": {
        "appinvite_service": {
          "other_platform_oauth_client": [
            {
              "client_id": "562655869453-3crppn3318s0m3qsg6pe2qi6li90osi4.apps.googleusercontent.com",
              "client_type": 3
            }
          ]
        }
      }
    }
  ],
  "configuration_version": "1"
}